…
``` r
counter <- gather(counter, date, use, -c(1:5))
show(counter)
```

    ## # A tibble: 50 x 7
    ##    Title    Access_Type   YOP Section_Type Reporting_Period_To… date    use
    ##    <chr>    <chr>       <dbl> <chr>                       <dbl> <chr> <dbl>
    ##  1 Journal… Controlled   2019 Article                       542 43586   113
    ##  2 Journal… OA_Gold      2019 Article                        21 43586     9
    ##  3 Journal… Controlled   2019 Article                       174 43586    30
    ##  4 Journal… OA_Gold      2019 Article                        39 43586    15
    ##  5 Journal… Controlled   2019 Article                         4 43586     0
    ##  6 Journal… Controlled   2019 Article                        81 43586    13
    ##  7 Journal… OA_Gold      2019 Article                         0 43586     0
    ##  8 Journal… Controlled   2020 Article                         1 43586     0
    ##  9 Journal… OA_Gold      2020 Article                         2 43586     0
    ## 10 Journal… Controlled   2019 Article                         4 43586     1
    ## # … with 40 more rows
…
``` r
counter <- counter[-5]
counter <- spread(counter, Access_Type, use)
show(counter)
```

    ## # A tibble: 30 x 6
    ##    Title       YOP Section_Type date       Controlled OA_Gold
    ##    <fct>     <dbl> <chr>        <date>          <dbl>   <dbl>
    ##  1 Journal A  2019 Article      2019-05-01        113       9
    ##  2 Journal A  2019 Article      2019-06-01         93       0
    ##  3 Journal A  2019 Article      2019-07-01         82       2
    ##  4 Journal A  2019 Article      2019-08-01        150       9
    ##  5 Journal A  2019 Article      2019-09-01        104       1
    ##  6 Journal B  2019 Article      2019-05-01         30      15
    ##  7 Journal B  2019 Article      2019-06-01         49       8
    ##  8 Journal B  2019 Article      2019-07-01         36       9
    ##  9 Journal B  2019 Article      2019-08-01         29       2
    ## 10 Journal B  2019 Article      2019-09-01         30       5
    ## # … with 20 more rows

Now I’ll create a total use column by adding the Controlled and OA\_Gold
columns together, because I don’t feel too fussy right now about where
the use comess
from.

``` r
counter$use <- rowSums(cbind(counter$Controlled, counter$OA_Gold), na.rm = TRUE)
show(counter)
```

    ## # A tibble: 30 x 7
    ##    Title       YOP Section_Type date       Controlled OA_Gold   use
    ##    <fct>     <dbl> <chr>        <date>          <dbl>   <dbl> <dbl>
    ##  1 Journal A  2019 Article      2019-05-01        113       9   122
    ##  2 Journal A  2019 Article      2019-06-01         93       0    93
    ##  3 Journal A  2019 Article      2019-07-01         82       2    84
    ##  4 Journal A  2019 Article      2019-08-01        150       9   159
    ##  5 Journal A  2019 Article      2019-09-01        104       1   105
    ##  6 Journal B  2019 Article      2019-05-01         30      15    45
    ##  7 Journal B  2019 Article      2019-06-01         49       8    57
    ##  8 Journal B  2019 Article      2019-07-01         36       9    45
    ##  9 Journal B  2019 Article      2019-08-01         29       2    31
    ## 10 Journal B  2019 Article      2019-09-01         30       5    35
    ## # … with 20 more rows
…
``` r
counterA <- read_excel("data_activity_counter_data.xlsx", skip = 12)

#reformat the counter dataframe
counterA <- gather(counterA, date, use, -c(1:5))
counterA$date <- as.numeric(counterA$date)
counterA$date <- as.Date(counterA$date, origin = "1899-12-30")
counterA$Title <- as.factor(counterA$Title)
show(counterA)
```

    ## # A tibble: 50 x 7
    ##    Title  Access_Type   YOP Section_Type Reporting_Period… date         use
    ##    <fct>  <chr>       <dbl> <chr>                    <dbl> <date>     <dbl>
    ##  1 Journ… Controlled   2019 Article                    542 2019-05-01   113
    ##  2 Journ… OA_Gold      2019 Article                     21 2019-05-01     9
    ##  3 Journ… Controlled   2019 Article                    174 2019-05-01    30
    ##  4 Journ… OA_Gold      2019 Article                     39 2019-05-01    15
    ##  5 Journ… Controlled   2019 Article                      4 2019-05-01     0
    ##  6 Journ… Controlled   2019 Article                     81 2019-05-01    13
    ##  7 Journ… OA_Gold      2019 Article                      0 2019-05-01     0
    ##  8 Journ… Controlled   2020 Article                      1 2019-05-01     0
    ##  9 Journ… OA_Gold      2020 Article                      2 2019-05-01     0
    ## 10 Journ… Controlled   2019 Article                      4 2019-05-01     1
    ## # … with 40 more rows
…
# ILS Print Monograph Circulation Data

On to the ILS report\! Here we’re looking at records for print books in
a special location in the library. We have to find five to weed. So
let’s load our data and take a look at what we have to work with\!

``` r
mono <- read_excel("data_activity_sirsi_data.xlsx")
show(mono)
```

    ## # A tibble: 21 x 8
    ##    Callnum `current locati… `total charges` `Last charged`     
    ##    <chr>   <chr>                      <dbl> <dttm>             
    ##  1 QA76.9… CHECKEDOUT                     3 2019-07-15 00:00:00
    ##  2 T385 .… READINGROOM                    1 2017-06-05 00:00:00
    ##  3 QA76.9… CHECKEDOUT                    12 2019-08-26 00:00:00
    ##  4 QA76.7… READINGROOM                    5 2019-08-28 00:00:00
    ##  5 QA76.2… CHECKEDOUT                     6 2019-09-19 00:00:00
    ##  6 BF241 … READINGROOM                   19 2018-04-08 00:00:00
    ##  7 QA76.9… READINGROOM                   14 2019-07-25 00:00:00
    ##  8 QA76.7… CHECKEDOUT                    12 2018-09-13 00:00:00
    ##  9 Q183.9… CHECKEDOUT                    11 2019-08-19 00:00:00
    ## 10 TR692 … READINGROOM                    0 2019-01-31 00:00:00
    ## # … with 11 more rows, and 4 more variables: `item creation date` <dttm>,
    ## #   TotalRenewals <dbl>, title <chr>, year <dbl>
…
